Wilayah;Lintang;Bujur;dokterSpesialis2010;dokterUmum2010;dokterGigi2010;dokterSpesialis2011;dokterUmum2011;dokterGigi2011;dokterSpesialis2012;dokterUmum2012;dokterGigi2012;dokterSpesialis2013;dokterUmum2013;dokterGigi2013;dokterSpesialis2014;dokterUmum2014;dokterGigi2014
 Aceh;3,93002;97,833252;242;841;161;340;1137;216;563;1319;279;854;1446;265;1191;1452;278
 Sumatera Utara;2,163792;98,256226;400;1791;702;1279;2724;813;1931;2920;865;2191;3161;857;3514;3042;846
 Sumatera Barat;-0,944781;100,689697;290;738;286;470;1001;377;497;1037;377;816;1230;405;819;1083;386
 Riau;0,439449;101,942139;160;779;284;229;904;316;733;1074;358;781;1182;359;1163;1184;373
 Jambi;-1,589423;103,60911;161;433;102;204;639;169;387;655;173;429;719;179;527;723;182
 Sumatera Selatan;-3,319437;103,914399;60;505;93;189;767;124;908;972;186;923;1100;212;1315;1112;242
 Bengkulu;-3,792845;102,260764;49;377;83;148;374;88;90;442;113;121;433;109;128;426;107
 Lampung;-4,558585;105,406808;130;596;171;263;881;249;225;812;249;453;1019;270;621;1002;274
 Kep. Bangka Belitung;-2,741051;106,440587;16;189;46;12;226;55;49;254;51;103;333;61;164;331;65
 Kepulauan Riau;2,108899;105,853271;61;339;97;104;459;128;184;550;149;255;540;135;300;488;131
 DKI Jakarta;-6,208763;106,845599;2605;3302;1187;4232;2484;1067;4339;2382;1211;5931;2728;1086;7056;2723;1205
 Jawa Barat;-7,090911;107,668887;902;2385;1033;1477;2860;1112;3503;3804;1535;5562;4757;1565;6882;4828;1789
 Jawa Tengah;-7,150975;110,140259;1053;2716;859;2489;4186;1154;3529;4786;1205;4397;4821;1258;5422;4587;1324
 DI Yogyakarta;-7,79558;110,36949;47;378;199;843;1252;448;1231;1289;431;1237;1408;394;1450;998;336
 Jawa Timur;-7,536064;112,238402;693;2377;1124;651;2822;1253;4258;4117;1591;4786;4574;1512;5963;4606;1590
 Banten;-6,405817;106,064018;102;537;235;727;679;218;1058;1146;525;1603;1382;509;2373;1520;606
 Bali;-8,409518;115,188916;343;937;312;848;943;273;925;929;263;1146;1069;292;1378;1049;292
 Nusa Tenggara Barat;-8,652933;117,361648;69;381;100;133;579;143;153;476;134;382;651;154;451;616;161
 Nusa Tenggara Timur;-8,657382;121,07937;25;444;131;42;575;143;227;630;153;275;698;160;347;707;156
 Kalimantan Barat;-0,278781;111,475285;102;468;127;162;526;116;214;567;128;343;639;130;434;655;146
 Kalimantan Tengah;-1,681488;113,382355;34;385;83;71;443;86;95;462;93;129;465;97;190;473;96
 Kalimantan Selatan;-3,092642;115,283758;134;539;151;410;526;191;220;714;177;491;779;191;675;826;202
 Kalimantan Timur;0,538659;116,419389;206;729;254;203;855;296;223;878;308;613;1080;321;747;828;273
 Kalimantan Utara;3,073093;116,041389;0;0;0;0;0;0;0;0;0;0;0;0;47;203;61
 Sulawesi Utara;0,624693;123,975002;44;516;45;436;901;52;362;923;62;447;1010;63;650;899;102
 Sulawesi Tengah;-1,430025;121,445618;88;363;92;57;414;88;109;470;101;274;534;106;361;509;112
 Sulawesi Selatan;-3,668799;119,974053;64;471;322;509;1135;488;902;1278;572;1402;1464;597;1902;1496;629
 Sulawesi Tenggara;-4,14491;122,174605;57;354;88;57;388;94;69;414;108;120;445;116;135;403;107
 Gorontalo;0,543544;123,056769;39;191;24;38;239;34;89;249;33;137;249;35;147;256;43
 Sulawesi Barat;-2,844137;119,232078;16;168;71;17;226;98;25;235;100;33;233;100;60;220;83
 Maluku;-3,238462;130,145273;36;271;73;45;332;107;47;334;108;118;390;119;126;385;120
 Maluku Utara;1,570999;127,808769;37;199;60;21;219;43;38;241;48;84;272;48;112;268;52
 Papua Barat;-1,336115;133,174716;61;165;37;30;177;36;91;312;53;108;297;54;100;178;35
 Papua;-4,269928;138,080353;77;469;99;100;619;89;59;693;87;202;733;98;244;711;98
